Proyecto 3. Avances 1. Eda y Clustering
…
# 3. Unir resumen
resumen_variables <- porcentaje_na %>%
  left_join(presencia_por_año, by = "variable")

# 4. Ver tabla final
print(resumen_variables)

## # A tibble: 55 × 3
##    variable porcentaje_na anios_con_dato
##    <chr>            <dbl>          <int>
##  1 Gretnm            93.2              1
##  2 mupnap            93.0              1
##  3 Ciuopad           92.5              1
##  4 Munpnam           92.5              1
##  5 Ciuomad           85.1              2
##  6 Areag             79.1              3
##  7 grupetma          78.4              3
##  8 Gretnp            71.6              4
##  9 Naciop            64.1              5
## 10 Naciom            64.1              5
## # ℹ 45 more rows
…
## 📊 Total de variables: 55

# Crear tabla con nombre, tipo y ejemplo por variable
resumen_variables <- tibble(
  variable = names(datos_completos),
  tipo = sapply(datos_completos, class),
  ejemplo = sapply(datos_completos, function(x) {
    first(na.omit(x))
  })
)

# Mostrar tabla resumen
print(resumen_variables)

## # A tibble: 55 × 3
##    variable tipo      ejemplo
##    <chr>    <chr>     <chr>  
##  1 Depreg   character 1      
##  2 Mupreg   character 0101   
##  3 Mesreg   character 8      
##  4 Añoreg   character 9      
##  5 Depocu   character 1      
##  6 Mupocu   character 0101   
##  7 Areag    character 1      
##  8 Libras   numeric   5      
##  9 Onzas    numeric   2      
## 10 Diaocu   character 28     
## # ℹ 45 more rows
…
